(kicad_sch
	(version 20231120)
	(generator "eeschema")
	(generator_version "8.0")
	(uuid "0bcf43ae-2607-45f1-b6e9-8d1bf7ec56e1")
	(paper "A4")
	(lib_symbols
		(symbol "Connector:Conn_01x03_Pin"
			(pin_names
				(offset 1.016) hide)
			(exclude_from_sim no)
			(in_bom yes)
			(on_board yes)
			(property "Reference" "J"
				(at 0 5.08 0)
				(effects
					(font
						(size 1.27 1.27)
					)
				)
			)
			(property "Value" "Conn_01x03_Pin"
				(at 0 -5.08 0)
				(effects
					(font
						(size 1.27 1.27)
					)
				)
			)
			(property "Footprint" ""
				(at 0 0 0)
				(effects
					(font
						(size 1.27 1.27)
					)
					(hide yes)
				)
			)
			(property "Datasheet" "~"
				(at 0 0 0)
				(effects
					(font
						(size 1.27 1.27)
					)
					(hide yes)
				)
			)
			(property "Description" "Generic connector, single row, 01x03, script generated"
				(at 0 0 0)
				(effects
					(font
						(size 1.27 1.27)
					)
					(hide yes)
				)
			)
			(property "ki_locked" ""
				(at 0 0 0)
				(effects
					(font
						(size 1.27 1.27)
					)
				)
			)
			(property "ki_keywords" "connector"
				(at 0 0 0)
				(effects
					(font
						(size 1.27 1.27)
					)
					(hide yes)
				)
			)
			(property "ki_fp_filters" "Connector*:*_1x??_*"
				(at 0 0 0)
				(effects
					(font
						(size 1.27 1.27)
					)
					(hide yes)
				)
			)
			(symbol "Conn_01x03_Pin_1_1"
				(polyline
					(pts
						(xy 1.27 -2.54) (xy 0.8636 -2.54)
					)
					(stroke
						(width 0.1524)
						(type default)
					)
					(fill
						(type none)
					)
				)
				(polyline
					(pts
						(xy 1.27 0) (xy 0.8636 0)
					)
					(stroke
						(width 0.1524)
						(type default)
					)
					(fill
						(type none)
					)
				)
				(polyline
					(pts
						(xy 1.27 2.54) (xy 0.8636 2.54)
					)
					(stroke
						(width 0.1524)
						(type default)
					)
					(fill
						(type none)
					)
				)
				(rectangle
					(start 0.8636 -2.413)
					(end 0 -2.667)
					(stroke
						(width 0.1524)
						(type default)
					)
					(fill
						(type outline)
					)
				)
				(rectangle
					(start 0.8636 0.127)
					(end 0 -0.127)
					(stroke
						(width 0.1524)
						(type default)
					)
					(fill
						(type outline)
					)
				)
				(rectangle
					(start 0.8636 2.667)
					(end 0 2.413)
					(stroke
						(width 0.1524)
						(type default)
					)
					(fill
						(type outline)
					)
				)
				(pin passive line
					(at 5.08 2.54 180)
					(length 3.81)
					(name "Pin_1"
						(effects
							(font
								(size 1.27 1.27)
							)
						)
					)
					(number "1"
						(effects
							(font
								(size 1.27 1.27)
							)
						)
					)
				)
				(pin passive line
					(at 5.08 0 180)
					(length 3.81)
					(name "Pin_2"
						(effects
							(font
								(size 1.27 1.27)
							)
						)
					)
					(number "2"
						(effects
							(font
								(size 1.27 1.27)
							)
						)
					)
				)
				(pin passive line
					(at 5.08 -2.54 180)
					(length 3.81)
					(name "Pin_3"
						(effects
							(font
								(size 1.27 1.27)
							)
						)
					)
					(number "3"
						(effects
							(font
								(size 1.27 1.27)
							)
						)
					)
				)
			)
		)
		(symbol "Connector:Conn_01x07_Pin"
			(pin_names
				(offset 1.016) hide)
			(exclude_from_sim no)
			(in_bom yes)
			(on_board yes)
			(property "Reference" "J"
				(at 0 10.16 0)
				(effects
					(font
						(size 1.27 1.27)
					)
				)
			)
			(property "Value" "Conn_01x07_Pin"
				(at 0 -10.16 0)
				(effects
					(font
						(size 1.27 1.27)
					)
				)
			)
			(property "Footprint" ""
				(at 0 0 0)
				(effects
					(font
						(size 1.27 1.27)
					)
					(hide yes)
				)
			)
			(property "Datasheet" "~"
				(at 0 0 0)
				(effects
					(font
						(size 1.27 1.27)
					)
					(hide yes)
				)
			)
			(property "Description" "Generic connector, single row, 01x07, script generated"
				(at 0 0 0)
				(effects
					(font
						(size 1.27 1.27)
					)
					(hide yes)
				)
			)
			(property "ki_locked" ""
				(at 0 0 0)
				(effects
					(font
						(size 1.27 1.27)
					)
				)
			)
			(property "ki_keywords" "connector"
				(at 0 0 0)
				(effects
					(font
						(size 1.27 1.27)
					)
					(hide yes)
				)
			)
			(property "ki_fp_filters" "Connector*:*_1x??_*"
				(at 0 0 0)
				(effects
					(font
						(size 1.27 1.27)
					)
					(hide yes)
				)
			)
			(symbol "Conn_01x07_Pin_1_1"
				(polyline
					(pts
						(xy 1.27 -7.62) (xy 0.8636 -7.62)
					)
					(stroke
						(width 0.1524)
						(type default)
					)
					(fill
						(type none)
					)
				)
				(polyline
					(pts
						(xy 1.27 -5.08) (xy 0.8636 -5.08)
					)
					(stroke
						(width 0.1524)
						(type default)
					)
					(fill
						(type none)
					)
				)
				(polyline
					(pts
						(xy 1.27 -2.54) (xy 0.8636 -2.54)
					)
					(stroke
						(width 0.1524)
						(type default)
					)
					(fill
						(type none)
					)
				)
				(polyline
					(pts
						(xy 1.27 0) (xy 0.8636 0)
					)
					(stroke
						(width 0.1524)
						(type default)
					)
					(fill
						(type none)
					)
				)
				(polyline
					(pts
						(xy 1.27 2.54) (xy 0.8636 2.54)
					)
					(stroke
						(width 0.1524)
						(type default)
					)
					(fill
						(type none)
					)
				)
				(polyline
					(pts
						(xy 1.27 5.08) (xy 0.8636 5.08)
					)
					(stroke
						(width 0.1524)
						(type default)
					)
					(fill
						(type none)
					)
				)
				(polyline
					(pts
						(xy 1.27 7.62) (xy 0.8636 7.62)
					)
					(stroke
						(width 0.1524)
						(type default)
					)
					(fill
						(type none)
					)
				)
				(rectangle
					(start 0.8636 -7.493)
					(end 0 -7.747)
					(stroke
						(width 0.1524)
						(type default)
					)
					(fill
						(type outline)
					)
				)
				(rectangle
					(start 0.8636 -4.953)
					(end 0 -5.207)
					(stroke
						(width 0.1524)
						(type default)
					)
					(fill
						(type outline)
					)
				)
				(rectangle
					(start 0.8636 -2.413)
					(end 0 -2.667)
					(stroke
						(width 0.1524)
						(type default)
					)
					(fill
						(type outline)
					)
				)
				(rectangle
					(start 0.8636 0.127)
					(end 0 -0.127)
					(stroke
						(width 0.1524)
						(type default)
					)
					(fill
						(type outline)
					)
				)
				(rectangle
					(start 0.8636 2.667)
					(end 0 2.413)
					(stroke
						(width 0.1524)
						(type default)
					)
					(fill
						(type outline)
					)
				)
				(rectangle
					(start 0.8636 5.207)
					(end 0 4.953)
					(stroke
						(width 0.1524)
						(type default)
					)
					(fill
						(type outline)
					)
				)
				(rectangle
					(start 0.8636 7.747)
					(end 0 7.493)
					(stroke
						(width 0.1524)
						(type default)
					)
					(fill
						(type outline)
					)
				)
				(pin passive line
					(at 5.08 7.62 180)
					(length 3.81)
					(name "Pin_1"
						(effects
							(font
								(size 1.27 1.27)
							)
						)
					)
					(number "1"
						(effects
							(font
								(size 1.27 1.27)
							)
						)
					)
				)
				(pin passive line
					(at 5.08 5.08 180)
					(length 3.81)
					(name "Pin_2"
						(effects
							(font
								(size 1.27 1.27)
							)
						)
					)
					(number "2"
						(effects
							(font
								(size 1.27 1.27)
							)
						)
					)
				)
				(pin passive line
					(at 5.08 2.54 180)
					(length 3.81)
					(name "Pin_3"
						(effects
							(font
								(size 1.27 1.27)
							)
						)
					)
					(number "3"
						(effects
							(font
								(size 1.27 1.27)
							)
						)
					)
				)
				(pin passive line
					(at 5.08 0 180)
					(length 3.81)
					(name "Pin_4"
						(effects
							(font
								(size 1.27 1.27)
							)
						)
					)
					(number "4"
						(effects
							(font
								(size 1.27 1.27)
							)
						)
					)
				)
				(pin passive line
					(at 5.08 -2.54 180)
					(length 3.81)
					(name "Pin_5"
						(effects
							(font
								(size 1.27 1.27)
							)
						)
					)
					(number "5"
						(effects
							(font
								(size 1.27 1.27)
							)
						)
					)
				)
				(pin passive line
					(at 5.08 -5.08 180)
					(length 3.81)
					(name "Pin_6"
						(effects
							(font
								(size 1.27 1.27)
							)
						)
					)
					(number "6"
						(effects
							(font
								(size 1.27 1.27)
							)
						)
					)
				)
				(pin passive line
					(at 5.08 -7.62 180)
					(length 3.81)
					(name "Pin_7"
						(effects
							(font
								(size 1.27 1.27)
							)
						)
					)
					(number "7"
						(effects
							(font
								(size 1.27 1.27)
							)
						)
					)
				)
			)
		)
		(symbol "Connector:Screw_Terminal_01x02"
			(pin_names
				(offset 1.016) hide)
			(exclude_from_sim no)
			(in_bom yes)
			(on_board yes)
			(property "Reference" "J"
				(at 0 2.54 0)
				(effects
					(font
						(size 1.27 1.27)
					)
				)
			)
			(property "Value" "Screw_Terminal_01x02"
				(at 0 -5.08 0)
				(effects
					(font
						(size 1.27 1.27)
					)
				)
			)
			(property "Footprint" ""
				(at 0 0 0)
				(effects
					(font
						(size 1.27 1.27)
					)
					(hide yes)
				)
			)
			(property "Datasheet" "~"
				(at 0 0 0)
				(effects
					(font
						(size 1.27 1.27)
					)
					(hide yes)
				)
			)
			(property "Description" "Generic screw terminal, single row, 01x02, script generated (kicad-library-utils/schlib/autogen/connector/)"
				(at 0 0 0)
				(effects
					(font
						(size 1.27 1.27)
					)
					(hide yes)
				)
			)
			(property "ki_keywords" "screw terminal"
				(at 0 0 0)
				(effects
					(font
						(size 1.27 1.27)
					)
					(hide yes)
				)
			)
			(property "ki_fp_filters" "TerminalBlock*:*"
				(at 0 0 0)
				(effects
					(font
						(size 1.27 1.27)
					)
					(hide yes)
				)
			)
			(symbol "Screw_Terminal_01x02_1_1"
				(rectangle
					(start -1.27 1.27)
					(end 1.27 -3.81)
					(stroke
						(width 0.254)
						(type default)
					)
					(fill
						(type background)
					)
				)
				(circle
					(center 0 -2.54)
					(radius 0.635)
					(stroke
						(width 0.1524)
						(type default)
					)
					(fill
						(type none)
					)
				)
				(polyline
					(pts
						(xy -0.5334 -2.2098) (xy 0.3302 -3.048)
					)
					(stroke
						(width 0.1524)
						(type default)
					)
					(fill
						(type none)
					)
				)
				(polyline
					(pts
						(xy -0.5334 0.3302) (xy 0.3302 -0.508)
					)
					(stroke
						(width 0.1524)
						(type default)
					)
					(fill
						(type none)
					)
				)
				(polyline
					(pts
						(xy -0.3556 -2.032) (xy 0.508 -2.8702)
					)
					(stroke
						(width 0.1524)
						(type default)
					)
					(fill
						(type none)
					)
				)
				(polyline
					(pts
						(xy -0.3556 0.508) (xy 0.508 -0.3302)
					)
					(stroke
						(width 0.1524)
						(type default)
					)
					(fill
						(type none)
					)
				)
				(circle
					(center 0 0)
					(radius 0.635)
					(stroke
						(width 0.1524)
						(type default)
					)
					(fill
						(type none)
					)
				)
				(pin passive line
					(at -5.08 0 0)
					(length 3.81)
					(name "Pin_1"
						(effects
							(font
								(size 1.27 1.27)
							)
						)
					)
					(number "1"
						(effects
							(font
								(size 1.27 1.27)
							)
						)
					)
				)
				(pin passive line
					(at -5.08 -2.54 0)
					(length 3.81)
					(name "Pin_2"
						(effects
							(font
								(size 1.27 1.27)
							)
						)
					)
					(number "2"
						(effects
							(font
								(size 1.27 1.27)
							)
						)
					)
				)
			)
		)
		(symbol "Device:Buzzer"
			(pin_names
				(offset 0.0254) hide)
			(exclude_from_sim no)
			(in_bom yes)
			(on_board yes)
			(property "Reference" "BZ"
				(at 3.81 1.27 0)
				(effects
					(font
						(size 1.27 1.27)
					)
					(justify left)
				)
			)
			(property "Value" "Buzzer"
				(at 3.81 -1.27 0)
				(effects
					(font
						(size 1.27 1.27)
					)
					(justify left)
				)
			)
			(property "Footprint" ""
				(at -0.635 2.54 90)
				(effects
					(font
						(size 1.27 1.27)
					)
					(hide yes)
				)
			)
			(property "Datasheet" "~"
				(at -0.635 2.54 90)
				(effects
					(font
						(size 1.27 1.27)
					)
					(hide yes)
				)
			)
			(property "Description" "Buzzer, polarized"
				(at 0 0 0)
				(effects
					(font
						(size 1.27 1.27)
					)
					(hide yes)
				)
			)
			(property "ki_keywords" "quartz resonator ceramic"
				(at 0 0 0)
				(effects
					(font
						(size 1.27 1.27)
					)
					(hide yes)
				)
			)
			(property "ki_fp_filters" "*Buzzer*"
				(at 0 0 0)
				(effects
					(font
						(size 1.27 1.27)
					)
					(hide yes)
				)
			)
			(symbol "Buzzer_0_1"
				(arc
					(start 0 -3.175)
					(mid 3.1612 0)
					(end 0 3.175)
					(stroke
						(width 0)
						(type default)
					)
					(fill
						(type none)
					)
				)
				(polyline
					(pts
						(xy -1.651 1.905) (xy -1.143 1.905)
					)
					(stroke
						(width 0)
						(type default)
					)
					(fill
						(type none)
					)
				)
				(polyline
					(pts
						(xy -1.397 2.159) (xy -1.397 1.651)
					)
					(stroke
						(width 0)
						(type default)
					)
					(fill
						(type none)
					)
				)
				(polyline
					(pts
						(xy 0 3.175) (xy 0 -3.175)
					)
					(stroke
						(width 0)
						(type default)
					)
					(fill
						(type none)
					)
				)
			)
			(symbol "Buzzer_1_1"
				(pin passive line
					(at -2.54 2.54 0)
					(length 2.54)
					(name "+"
						(effects
							(font
								(size 1.27 1.27)
							)
						)
					)
					(number "1"
						(effects
							(font
								(size 1.27 1.27)
							)
						)
					)
				)
				(pin passive line
					(at -2.54 -2.54 0)
					(length 2.54)
					(name "-"
						(effects
							(font
								(size 1.27 1.27)
							)
						)
					)
					(number "2"
						(effects
							(font
								(size 1.27 1.27)
							)
						)
					)
				)
			)
		)
		(symbol "Device:LED"
			(pin_numbers hide)
			(pin_names
				(offset 1.016) hide)
			(exclude_from_sim no)
			(in_bom yes)
			(on_board yes)
			(property "Reference" "D"
				(at 0 2.54 0)
				(effects
					(font
						(size 1.27 1.27)
					)
				)
			)
			(property "Value" "LED"
				(at 0 -2.54 0)
				(effects
					(font
						(size 1.27 1.27)
					)
				)
			)
			(property "Footprint" ""
				(at 0 0 0)
				(effects
					(font
						(size 1.27 1.27)
					)
					(hide yes)
				)
			)
			(property "Datasheet" "~"
				(at 0 0 0)
				(effects
					(font
						(size 1.27 1.27)
					)
					(hide yes)
				)
			)
			(property "Description" "Light emitting diode"
				(at 0 0 0)
				(effects
					(font
						(size 1.27 1.27)
					)
					(hide yes)
				)
			)
			(property "ki_keywords" "LED diode"
				(at 0 0 0)
				(effects
					(font
						(size 1.27 1.27)
					)
					(hide yes)
				)
			)
			(property "ki_fp_filters" "LED* LED_SMD:* LED_THT:*"
				(at 0 0 0)
				(effects
					(font
						(size 1.27 1.27)
					)
					(hide yes)
				)
			)
			(symbol "LED_0_1"
				(polyline
					(pts
						(xy -1.27 -1.27) (xy -1.27 1.27)
					)
					(stroke
						(width 0.254)
						(type default)
					)
					(fill
						(type none)
					)
				)
				(polyline
					(pts
						(xy -1.27 0) (xy 1.27 0)
					)
					(stroke
						(width 0)
						(type default)
					)
					(fill
						(type none)
					)
				)
				(polyline
					(pts
						(xy 1.27 -1.27) (xy 1.27 1.27) (xy -1.27 0) (xy 1.27 -1.27)
					)
					(stroke
						(width 0.254)
						(type default)
					)
					(fill
						(type none)
					)
				)
				(polyline
					(pts
						(xy -3.048 -0.762) (xy -4.572 -2.286) (xy -3.81 -2.286) (xy -4.572 -2.286) (xy -4.572 -1.524)
					)
					(stroke
						(width 0)
						(type default)
					)
					(fill
						(type none)
					)
				)
				(polyline
					(pts
						(xy -1.778 -0.762) (xy -3.302 -2.286) (xy -2.54 -2.286) (xy -3.302 -2.286) (xy -3.302 -1.524)
					)
					(stroke
						(width 0)
						(type default)
					)
					(fill
						(type none)
					)
				)
			)
			(symbol "LED_1_1"
				(pin passive line
					(at -3.81 0 0)
					(length 2.54)
					(name "K"
						(effects
							(font
								(size 1.27 1.27)
							)
						)
					)
					(number "1"
						(effects
							(font
								(size 1.27 1.27)
							)
						)
					)
				)
				(pin passive line
					(at 3.81 0 180)
					(length 2.54)
					(name "A"
						(effects
							(font
								(size 1.27 1.27)
							)
						)
					)
					(number "2"
						(effects
							(font
								(size 1.27 1.27)
							)
						)
					)
				)
			)
		)
		(symbol "Device:RotaryEncoder_Switch"
			(pin_names
				(offset 0.254) hide)
			(exclude_from_sim no)
			(in_bom yes)
			(on_board yes)
			(property "Reference" "SW"
				(at 0 6.604 0)
				(effects
					(font
						(size 1.27 1.27)
					)
				)
			)
			(property "Value" "RotaryEncoder_Switch"
				(at 0 -6.604 0)
				(effects
					(font
						(size 1.27 1.27)
					)
				)
			)
			(property "Footprint" ""
				(at -3.81 4.064 0)
				(effects
					(font
						(size 1.27 1.27)
					)
					(hide yes)
				)
			)
			(property "Datasheet" "~"
				(at 0 6.604 0)
				(effects
					(font
						(size 1.27 1.27)
					)
					(hide yes)
				)
			)
			(property "Description" "Rotary encoder, dual channel, incremental quadrate outputs, with switch"
				(at 0 0 0)
				(effects
					(font
						(size 1.27 1.27)
					)
					(hide yes)
				)
			)
			(property "ki_keywords" "rotary switch encoder switch push button"
				(at 0 0 0)
				(effects
					(font
						(size 1.27 1.27)
					)
					(hide yes)
				)
			)
			(property "ki_fp_filters" "RotaryEncoder*Switch*"
				(at 0 0 0)
				(effects
					(font
						(size 1.27 1.27)
					)
					(hide yes)
				)
			)
			(symbol "RotaryEncoder_Switch_0_1"
				(rectangle
					(start -5.08 5.08)
					(end 5.08 -5.08)
					(stroke
						(width 0.254)
						(type default)
					)
					(fill
						(type background)
					)
				)
				(circle
					(center -3.81 0)
					(radius 0.254)
					(stroke
						(width 0)
						(type default)
					)
					(fill
						(type outline)
					)
				)
				(circle
					(center -0.381 0)
					(radius 1.905)
					(stroke
						(width 0.254)
						(type default)
					)
					(fill
						(type none)
					)
				)
				(arc
					(start -0.381 2.667)
					(mid -3.0988 -0.0635)
					(end -0.381 -2.794)
					(stroke
						(width 0.254)
						(type default)
					)
					(fill
						(type none)
					)
				)
				(polyline
					(pts
						(xy -0.635 -1.778) (xy -0.635 1.778)
					)
					(stroke
						(width 0.254)
						(type default)
					)
					(fill
						(type none)
					)
				)
				(polyline
					(pts
						(xy -0.381 -1.778) (xy -0.381 1.778)
					)
					(stroke
						(width 0.254)
						(type default)
					)
					(fill
						(type none)
					)
				)
				(polyline
					(pts
						(xy -0.127 1.778) (xy -0.127 -1.778)
					)
					(stroke
						(width 0.254)
						(type default)
					)
					(fill
						(type none)
					)
				)
				(polyline
					(pts
						(xy 3.81 0) (xy 3.429 0)
					)
					(stroke
						(width 0.254)
						(type default)
					)
					(fill
						(type none)
					)
				)
				(polyline
					(pts
						(xy 3.81 1.016) (xy 3.81 -1.016)
					)
					(stroke
						(width 0.254)
						(type default)
					)
					(fill
						(type none)
					)
				)
				(polyline
					(pts
						(xy -5.08 -2.54) (xy -3.81 -2.54) (xy -3.81 -2.032)
					)
					(stroke
						(width 0)
						(type default)
					)
					(fill
						(type none)
					)
				)
				(polyline
					(pts
						(xy -5.08 2.54) (xy -3.81 2.54) (xy -3.81 2.032)
					)
					(stroke
						(width 0)
						(type default)
					)
					(fill
						(type none)
					)
				)
				(polyline
					(pts
						(xy 0.254 -3.048) (xy -0.508 -2.794) (xy 0.127 -2.413)
					)
					(stroke
						(width 0.254)
						(type default)
					)
					(fill
						(type none)
					)
				)
				(polyline
					(pts
						(xy 0.254 2.921) (xy -0.508 2.667) (xy 0.127 2.286)
					)
					(stroke
						(width 0.254)
						(type default)
					)
					(fill
						(type none)
					)
				)
				(polyline
					(pts
						(xy 5.08 -2.54) (xy 4.318 -2.54) (xy 4.318 -1.016)
					)
					(stroke
						(width 0.254)
						(type default)
					)
					(fill
						(type none)
					)
				)
				(polyline
					(pts
						(xy 5.08 2.54) (xy 4.318 2.54) (xy 4.318 1.016)
					)
					(stroke
						(width 0.254)
						(type default)
					)
					(fill
						(type none)
					)
				)
				(polyline
					(pts
						(xy -5.08 0) (xy -3.81 0) (xy -3.81 -1.016) (xy -3.302 -2.032)
					)
					(stroke
						(width 0)
						(type default)
					)
					(fill
						(type none)
					)
				)
				(polyline
					(pts
						(xy -4.318 0) (xy -3.81 0) (xy -3.81 1.016) (xy -3.302 2.032)
					)
					(stroke
						(width 0)
						(type default)
					)
					(fill
						(type none)
					)
				)
				(circle
					(center 4.318 -1.016)
					(radius 0.127)
					(stroke
						(width 0.254)
						(type default)
					)
					(fill
						(type none)
					)
				)
				(circle
					(center 4.318 1.016)
					(radius 0.127)
					(stroke
						(width 0.254)
						(type default)
					)
					(fill
						(type none)
					)
				)
			)
			(symbol "RotaryEncoder_Switch_1_1"
				(pin passive line
					(at -7.62 2.54 0)
					(length 2.54)
					(name "A"
						(effects
							(font
								(size 1.27 1.27)
							)
						)
					)
					(number "A"
						(effects
							(font
								(size 1.27 1.27)
							)
						)
					)
				)
				(pin passive line
					(at -7.62 -2.54 0)
					(length 2.54)
					(name "B"
						(effects
							(font
								(size 1.27 1.27)
							)
						)
					)
					(number "B"
						(effects
							(font
								(size 1.27 1.27)
							)
						)
					)
				)
				(pin passive line
					(at -7.62 0 0)
					(length 2.54)
					(name "C"
						(effects
							(font
								(size 1.27 1.27)
							)
						)
					)
					(number "C"
						(effects
							(font
								(size 1.27 1.27)
							)
						)
					)
				)
				(pin passive line
					(at 7.62 2.54 180)
					(length 2.54)
					(name "S1"
						(effects
							(font
								(size 1.27 1.27)
							)
						)
					)
					(number "S1"
						(effects
							(font
								(size 1.27 1.27)
							)
						)
					)
				)
				(pin passive line
					(at 7.62 -2.54 180)
					(length 2.54)
					(name "S2"
						(effects
							(font
								(size 1.27 1.27)
							)
						)
					)
					(number "S2"
						(effects
							(font
								(size 1.27 1.27)
							)
						)
					)
				)
			)
		)
		(symbol "LED:WS2812B"
			(pin_names
				(offset 0.254)
			)
			(exclude_from_sim no)
			(in_bom yes)
			(on_board yes)
			(property "Reference" "D"
				(at 5.08 5.715 0)
				(effects
					(font
						(size 1.27 1.27)
					)
					(justify right bottom)
				)
			)
			(property "Value" "WS2812B"
				(at 1.27 -5.715 0)
				(effects
					(font
						(size 1.27 1.27)
					)
					(justify left top)
				)
			)
			(property "Footprint" "LED_SMD:LED_WS2812B_PLCC4_5.0x5.0mm_P3.2mm"
				(at 1.27 -7.62 0)
				(effects
					(font
						(size 1.27 1.27)
					)
					(justify left top)
					(hide yes)
				)
			)
			(property "Datasheet" "https://cdn-shop.adafruit.com/datasheets/WS2812B.pdf"
				(at 2.54 -9.525 0)
				(effects
					(font
						(size 1.27 1.27)
					)
					(justify left top)
					(hide yes)
				)
			)
			(property "Description" "RGB LED with integrated controller"
				(at 0 0 0)
				(effects
					(font
						(size 1.27 1.27)
					)
					(hide yes)
				)
			)
			(property "ki_keywords" "RGB LED NeoPixel addressable"
				(at 0 0 0)
				(effects
					(font
						(size 1.27 1.27)
					)
					(hide yes)
				)
			)
			(property "ki_fp_filters" "LED*WS2812*PLCC*5.0x5.0mm*P3.2mm*"
				(at 0 0 0)
				(effects
					(font
						(size 1.27 1.27)
					)
					(hide yes)
				)
			)
			(symbol "WS2812B_0_0"
				(text "RGB"
					(at 2.286 -4.191 0)
					(effects
						(font
							(size 0.762 0.762)
						)
					)
				)
			)
			(symbol "WS2812B_0_1"
				(polyline
					(pts
						(xy 1.27 -3.556) (xy 1.778 -3.556)
					)
					(stroke
						(width 0)
						(type default)
					)
					(fill
						(type none)
					)
				)
				(polyline
					(pts
						(xy 1.27 -2.54) (xy 1.778 -2.54)
					)
					(stroke
						(width 0)
						(type default)
					)
					(fill
						(type none)
					)
				)
				(polyline
					(pts
						(xy 4.699 -3.556) (xy 2.667 -3.556)
					)
					(stroke
						(width 0)
						(type default)
					)
					(fill
						(type none)
					)
				)
				(polyline
					(pts
						(xy 2.286 -2.54) (xy 1.27 -3.556) (xy 1.27 -3.048)
					)
					(stroke
						(width 0)
						(type default)
					)
					(fill
						(type none)
					)
				)
				(polyline
					(pts
						(xy 2.286 -1.524) (xy 1.27 -2.54) (xy 1.27 -2.032)
					)
					(stroke
						(width 0)
						(type default)
					)
					(fill
						(type none)
					)
				)
				(polyline
					(pts
						(xy 3.683 -1.016) (xy 3.683 -3.556) (xy 3.683 -4.064)
					)
					(stroke
						(width 0)
						(type default)
					)
					(fill
						(type none)
					)
				)
				(polyline
					(pts
						(xy 4.699 -1.524) (xy 2.667 -1.524) (xy 3.683 -3.556) (xy 4.699 -1.524)
					)
					(stroke
						(width 0)
						(type default)
					)
					(fill
						(type none)
					)
				)
				(rectangle
					(start 5.08 5.08)
					(end -5.08 -5.08)
					(stroke
						(width 0.254)
						(type default)
					)
					(fill
						(type background)
					)
				)
			)
			(symbol "WS2812B_1_1"
				(pin power_in line
					(at 0 7.62 270)
					(length 2.54)
					(name "VDD"
						(effects
							(font
								(size 1.27 1.27)
							)
						)
					)
					(number "1"
						(effects
							(font
								(size 1.27 1.27)
							)
						)
					)
				)
				(pin output line
					(at 7.62 0 180)
					(length 2.54)
					(name "DOUT"
						(effects
							(font
								(size 1.27 1.27)
							)
						)
					)
					(number "2"
						(effects
							(font
								(size 1.27 1.27)
							)
						)
					)
				)
				(pin power_in line
					(at 0 -7.62 90)
					(length 2.54)
					(name "VSS"
						(effects
							(font
								(size 1.27 1.27)
							)
						)
					)
					(number "3"
						(effects
							(font
								(size 1.27 1.27)
							)
						)
					)
				)
				(pin input line
					(at -7.62 0 0)
					(length 2.54)
					(name "DIN"
						(effects
							(font
								(size 1.27 1.27)
							)
						)
					)
					(number "4"
						(effects
							(font
								(size 1.27 1.27)
							)
						)
					)
				)
			)
		)
		(symbol "MCU_Module:Arduino_Nano_v2.x"
			(exclude_from_sim no)
			(in_bom yes)
			(on_board yes)
			(property "Reference" "A"
				(at -10.16 23.495 0)
				(effects
					(font
						(size 1.27 1.27)
					)
					(justify left bottom)
				)
			)
			(property "Value" "Arduino_Nano_v2.x"
				(at 5.08 -24.13 0)
				(effects
					(font
						(size 1.27 1.27)
					)
					(justify left top)
				)
			)
			(property "Footprint" "Module:Arduino_Nano"
				(at 0 0 0)
				(effects
					(font
						(size 1.27 1.27)
						(italic yes)
					)
					(hide yes)
				)
			)
			(property "Datasheet" "https://www.arduino.cc/en/uploads/Main/ArduinoNanoManual23.pdf"
				(at 0 0 0)
				(effects
					(font
						(size 1.27 1.27)
					)
					(hide yes)
				)
			)
			(property "Description" "Arduino Nano v2.x"
				(at 0 0 0)
				(effects
					(font
						(size 1.27 1.27)
					)
					(hide yes)
				)
			)
			(property "ki_keywords" "Arduino nano microcontroller module USB"
				(at 0 0 0)
				(effects
					(font
						(size 1.27 1.27)
					)
					(hide yes)
				)
			)
			(property "ki_fp_filters" "Arduino*Nano*"
				(at 0 0 0)
				(effects
					(font
						(size 1.27 1.27)
					)
					(hide yes)
				)
			)
			(symbol "Arduino_Nano_v2.x_0_1"
				(rectangle
					(start -10.16 22.86)
					(end 10.16 -22.86)
					(stroke
						(width 0.254)
						(type default)
					)
					(fill
						(type background)
					)
				)
			)
			(symbol "Arduino_Nano_v2.x_1_1"
				(pin bidirectional line
					(at -12.7 12.7 0)
					(length 2.54)
					(name "D1/TX"
						(effects
							(font
								(size 1.27 1.27)
							)
						)
					)
					(number "1"
						(effects
							(font
								(size 1.27 1.27)
							)
						)
					)
				)
				(pin bidirectional line
					(at -12.7 -2.54 0)
					(length 2.54)
					(name "D7"
						(effects
							(font
								(size 1.27 1.27)
							)
						)
					)
					(number "10"
						(effects
							(font
								(size 1.27 1.27)
							)
						)
					)
				)
				(pin bidirectional line
					(at -12.7 -5.08 0)
					(length 2.54)
					(name "D8"
						(effects
							(font
								(size 1.27 1.27)
							)
						)
					)
					(number "11"
						(effects
							(font
								(size 1.27 1.27)
							)
						)
					)
				)
				(pin bidirectional line
					(at -12.7 -7.62 0)
					(length 2.54)
					(name "D9"
						(effects
							(font
								(size 1.27 1.27)
							)
						)
					)
					(number "12"
						(effects
							(font
								(size 1.27 1.27)
							)
						)
					)
				)
				(pin bidirectional line
					(at -12.7 -10.16 0)
					(length 2.54)
					(name "D10"
						(effects
							(font
								(size 1.27 1.27)
							)
						)
					)
					(number "13"
						(effects
							(font
								(size 1.27 1.27)
							)
						)
					)
				)
				(pin bidirectional line
					(at -12.7 -12.7 0)
					(length 2.54)
					(name "D11"
						(effects
							(font
								(size 1.27 1.27)
							)
						)
					)
					(number "14"
						(effects
							(font
								(size 1.27 1.27)
							)
						)
					)
				)
				(pin bidirectional line
					(at -12.7 -15.24 0)
					(length 2.54)
					(name "D12"
						(effects
							(font
								(size 1.27 1.27)
							)
						)
					)
					(number "15"
						(effects
							(font
								(size 1.27 1.27)
							)
						)
					)
				)
				(pin bidirectional line
					(at -12.7 -17.78 0)
					(length 2.54)
					(name "D13"
						(effects
							(font
								(size 1.27 1.27)
							)
						)
					)
					(number "16"
						(effects
							(font
								(size 1.27 1.27)
							)
						)
					)
				)
				(pin power_out line
					(at 2.54 25.4 270)
					(length 2.54)
					(name "3V3"
						(effects
							(font
								(size 1.27 1.27)
							)
						)
					)
					(number "17"
						(effects
							(font
								(size 1.27 1.27)
							)
						)
					)
				)
				(pin input line
					(at 12.7 5.08 180)
					(length 2.54)
					(name "AREF"
						(effects
							(font
								(size 1.27 1.27)
							)
						)
					)
					(number "18"
						(effects
							(font
								(size 1.27 1.27)
							)
						)
					)
				)
				(pin bidirectional line
					(at 12.7 0 180)
					(length 2.54)
					(name "A0"
						(effects
							(font
								(size 1.27 1.27)
							)
						)
					)
					(number "19"
						(effects
							(font
								(size 1.27 1.27)
							)
						)
					)
				)
				(pin bidirectional line
					(at -12.7 15.24 0)
					(length 2.54)
					(name "D0/RX"
						(effects
							(font
								(size 1.27 1.27)
							)
						)
					)
					(number "2"
						(effects
							(font
								(size 1.27 1.27)
							)
						)
					)
				)
				(pin bidirectional line
					(at 12.7 -2.54 180)
					(length 2.54)
					(name "A1"
						(effects
							(font
								(size 1.27 1.27)
							)
						)
					)
					(number "20"
						(effects
							(font
								(size 1.27 1.27)
							)
						)
					)
				)
				(pin bidirectional line
					(at 12.7 -5.08 180)
					(length 2.54)
					(name "A2"
						(effects
							(font
								(size 1.27 1.27)
							)
						)
					)
					(number "21"
						(effects
							(font
								(size 1.27 1.27)
							)
						)
					)
				)
				(pin bidirectional line
					(at 12.7 -7.62 180)
					(length 2.54)
					(name "A3"
						(effects
							(font
								(size 1.27 1.27)
							)
						)
					)
					(number "22"
						(effects
							(font
								(size 1.27 1.27)
							)
						)
					)
				)
				(pin bidirectional line
					(at 12.7 -10.16 180)
					(length 2.54)
					(name "A4"
						(effects
							(font
								(size 1.27 1.27)
							)
						)
					)
					(number "23"
						(effects
							(font
								(size 1.27 1.27)
							)
						)
					)
				)
				(pin bidirectional line
					(at 12.7 -12.7 180)
					(length 2.54)
					(name "A5"
						(effects
							(font
								(size 1.27 1.27)
							)
						)
					)
					(number "24"
						(effects
							(font
								(size 1.27 1.27)
							)
						)
					)
				)
				(pin bidirectional line
					(at 12.7 -15.24 180)
					(length 2.54)
					(name "A6"
						(effects
							(font
								(size 1.27 1.27)
							)
						)
					)
					(number "25"
						(effects
							(font
								(size 1.27 1.27)
							)
						)
					)
				)
				(pin bidirectional line
					(at 12.7 -17.78 180)
					(length 2.54)
					(name "A7"
						(effects
							(font
								(size 1.27 1.27)
							)
						)
					)
					(number "26"
						(effects
							(font
								(size 1.27 1.27)
							)
						)
					)
				)
				(pin power_out line
					(at 5.08 25.4 270)
					(length 2.54)
					(name "+5V"
						(effects
							(font
								(size 1.27 1.27)
							)
						)
					)
					(number "27"
						(effects
							(font
								(size 1.27 1.27)
							)
						)
					)
				)
				(pin input line
					(at 12.7 15.24 180)
					(length 2.54)
					(name "~{RESET}"
						(effects
							(font
								(size 1.27 1.27)
							)
						)
					)
					(number "28"
						(effects
							(font
								(size 1.27 1.27)
							)
						)
					)
				)
				(pin power_in line
					(at 2.54 -25.4 90)
					(length 2.54)
					(name "GND"
						(effects
							(font
								(size 1.27 1.27)
							)
						)
					)
					(number "29"
						(effects
							(font
								(size 1.27 1.27)
							)
						)
					)
				)
				(pin input line
					(at 12.7 12.7 180)
					(length 2.54)
					(name "~{RESET}"
						(effects
							(font
								(size 1.27 1.27)
							)
						)
					)
					(number "3"
						(effects
							(font
								(size 1.27 1.27)
							)
						)
					)
				)
				(pin power_in line
					(at -2.54 25.4 270)
					(length 2.54)
					(name "VIN"
						(effects
							(font
								(size 1.27 1.27)
							)
						)
					)
					(number "30"
						(effects
							(font
								(size 1.27 1.27)
							)
						)
					)
				)
				(pin power_in line
					(at 0 -25.4 90)
					(length 2.54)
					(name "GND"
						(effects
							(font
								(size 1.27 1.27)
							)
						)
					)
					(number "4"
						(effects
							(font
								(size 1.27 1.27)
							)
						)
					)
				)
				(pin bidirectional line
					(at -12.7 10.16 0)
					(length 2.54)
					(name "D2"
						(effects
							(font
								(size 1.27 1.27)
							)
						)
					)
					(number "5"
						(effects
							(font
								(size 1.27 1.27)
							)
						)
					)
				)
				(pin bidirectional line
					(at -12.7 7.62 0)
					(length 2.54)
					(name "D3"
						(effects
							(font
								(size 1.27 1.27)
							)
						)
					)
					(number "6"
						(effects
							(font
								(size 1.27 1.27)
							)
						)
					)
				)
				(pin bidirectional line
					(at -12.7 5.08 0)
					(length 2.54)
					(name "D4"
						(effects
							(font
								(size 1.27 1.27)
							)
						)
					)
					(number "7"
						(effects
							(font
								(size 1.27 1.27)
							)
						)
					)
				)
				(pin bidirectional line
					(at -12.7 2.54 0)
					(length 2.54)
					(name "D5"
						(effects
							(font
								(size 1.27 1.27)
							)
						)
					)
					(number "8"
						(effects
							(font
								(size 1.27 1.27)
							)
						)
					)
				)
				(pin bidirectional line
					(at -12.7 0 0)
					(length 2.54)
					(name "D6"
						(effects
							(font
								(size 1.27 1.27)
							)
						)
					)
					(number "9"
						(effects
							(font
								(size 1.27 1.27)
							)
						)
					)
				)
			)
		)
		(symbol "Regulator_Switching:XL4015"
			(exclude_from_sim no)
			(in_bom yes)
			(on_board yes)
			(property "Reference" "U?"
				(at -6.35 6.35 0)
				(effects
					(font
						(size 1.27 1.27)
					)
				)
			)
			(property "Value" "XL4015"
				(at 6.35 6.35 0)
				(effects
					(font
						(size 1.27 1.27)
					)
				)
			)
			(property "Footprint" "Package_TO_SOT_SMD:TO-263-5_TabPin3"
				(at 21.59 -7.62 0)
				(effects
					(font
						(size 1.27 1.27)
					)
					(hide yes)
				)
			)
			(property "Datasheet" "http://www.xlsemi.net/datasheet/XL4015%20datasheet-English.pdf"
				(at 0 0 0)
				(effects
					(font
						(size 1.27 1.27)
					)
					(hide yes)
				)
			)
			(property "Description" "5A 180kHz 36V Buck DC to DC Converter"
				(at 0 0 0)
				(effects
					(font
						(size 1.27 1.27)
					)
					(hide yes)
				)
			)
			(property "ki_keywords" "Buck DC-DC"
				(at 0 0 0)
				(effects
					(font
						(size 1.27 1.27)
					)
					(hide yes)
				)
			)
			(property "ki_fp_filters" "TO?263*"
				(at 0 0 0)
				(effects
					(font
						(size 1.27 1.27)
					)
					(hide yes)
				)
			)
			(symbol "XL4015_0_1"
				(rectangle
					(start -7.62 5.08)
					(end 7.62 -5.08)
					(stroke
						(width 0.254)
						(type default)
					)
					(fill
						(type background)
					)
				)
			)
			(symbol "XL4015_1_1"
				(pin power_in line
					(at 0 -7.62 90)
					(length 2.54)
					(name "GND"
						(effects
							(font
								(size 1.27 1.27)
							)
						)
					)
					(number "1"
						(effects
							(font
								(size 1.27 1.27)
							)
						)
					)
				)
				(pin input line
					(at 10.16 -2.54 180)
					(length 2.54)
					(name "FB"
						(effects
							(font
								(size 1.27 1.27)
							)
						)
					)
					(number "2"
						(effects
							(font
								(size 1.27 1.27)
							)
						)
					)
				)
				(pin power_out line
					(at 10.16 2.54 180)
					(length 2.54)
					(name "SW"
						(effects
							(font
								(size 1.27 1.27)
							)
						)
					)
					(number "3"
						(effects
							(font
								(size 1.27 1.27)
							)
						)
					)
				)
				(pin input line
					(at -10.16 -2.54 0)
					(length 2.54)
					(name "VC"
						(effects
							(font
								(size 1.27 1.27)
							)
						)
					)
					(number "4"
						(effects
							(font
								(size 1.27 1.27)
							)
						)
					)
				)
				(pin power_in line
					(at -10.16 2.54 0)
					(length 2.54)
					(name "VIN"
						(effects
							(font
								(size 1.27 1.27)
							)
						)
					)
					(number "5"
						(effects
							(font
								(size 1.27 1.27)
							)
						)
					)
				)
			)
		)
		(symbol "Sensor_Optical:A1050"
			(pin_numbers hide)
			(pin_names
				(offset 0)
			)
			(exclude_from_sim no)
			(in_bom yes)
			(on_board yes)
			(property "Reference" "R"
				(at -5.08 0 90)
				(effects
					(font
						(size 1.27 1.27)
					)
				)
			)
			(property "Value" "A1050"
				(at 1.905 0 90)
				(effects
					(font
						(size 1.27 1.27)
					)
					(justify top)
				)
			)
			(property "Footprint" "OptoDevice:R_LDR_D6.4mm_P3.4mm_Vertical"
				(at 4.445 0 90)
				(effects
					(font
						(size 1.27 1.27)
					)
					(hide yes)
				)
			)
			(property "Datasheet" "http://cdn-reichelt.de/documents/datenblatt/A500/A106012.pdf"
				(at 0 -1.27 0)
				(effects
					(font
						(size 1.27 1.27)
					)
					(hide yes)
				)
			)
			(property "Description" "light dependent resistor"
				(at 0 0 0)
				(effects
					(font
						(size 1.27 1.27)
					)
					(hide yes)
				)
			)
			(property "ki_keywords" "light dependent photo resistor LDR"
				(at 0 0 0)
				(effects
					(font
						(size 1.27 1.27)
					)
					(hide yes)
				)
			)
			(property "ki_fp_filters" "R*LDR*D6.4*P3.4*"
				(at 0 0 0)
				(effects
					(font
						(size 1.27 1.27)
					)
					(hide yes)
				)
			)
			(symbol "A1050_0_1"
				(rectangle
					(start -1.016 2.54)
					(end 1.016 -2.54)
					(stroke
						(width 0.254)
						(type default)
					)
					(fill
						(type none)
					)
				)
				(polyline
					(pts
						(xy -1.524 -2.286) (xy -4.064 0.254)
					)
					(stroke
						(width 0)
						(type default)
					)
					(fill
						(type none)
					)
				)
				(polyline
					(pts
						(xy -1.524 -2.286) (xy -2.286 -2.286)
					)
					(stroke
						(width 0)
						(type default)
					)
					(fill
						(type none)
					)
				)
				(polyline
					(pts
						(xy -1.524 -2.286) (xy -1.524 -1.524)
					)
					(stroke
						(width 0)
						(type default)
					)
					(fill
						(type none)
					)
				)
				(polyline
					(pts
						(xy -1.524 -0.762) (xy -4.064 1.778)
					)
					(stroke
						(width 0)
						(type default)
					)
					(fill
						(type none)
					)
				)
				(polyline
					(pts
						(xy -1.524 -0.762) (xy -2.286 -0.762)
					)
					(stroke
						(width 0)
						(type default)
					)
					(fill
						(type none)
					)
				)
				(polyline
					(pts
						(xy -1.524 -0.762) (xy -1.524 0)
					)
					(stroke
						(width 0)
						(type default)
					)
					(fill
						(type none)
					)
				)
			)
			(symbol "A1050_1_1"
				(pin passive line
					(at 0 3.81 270)
					(length 1.27)
					(name "~"
						(effects
							(font
								(size 1.27 1.27)
							)
						)
					)
					(number "1"
						(effects
							(font
								(size 1.27 1.27)
							)
						)
					)
				)
				(pin passive line
					(at 0 -3.81 90)
					(length 1.27)
					(name "~"
						(effects
							(font
								(size 1.27 1.27)
							)
						)
					)
					(number "2"
						(effects
							(font
								(size 1.27 1.27)
							)
						)
					)
				)
			)
		)
		(symbol "Switch:SW_Push"
			(pin_numbers hide)
			(pin_names
				(offset 1.016) hide)
			(exclude_from_sim no)
			(in_bom yes)
			(on_board yes)
			(property "Reference" "SW"
				(at 1.27 2.54 0)
				(effects
					(font
						(size 1.27 1.27)
					)
					(justify left)
				)
			)
			(property "Value" "SW_Push"
				(at 0 -1.524 0)
				(effects
					(font
						(size 1.27 1.27)
					)
				)
			)
			(property "Footprint" ""
				(at 0 5.08 0)
				(effects
					(font
						(size 1.27 1.27)
					)
					(hide yes)
				)
			)
			(property "Datasheet" "~"
				(at 0 5.08 0)
				(effects
					(font
						(size 1.27 1.27)
					)
					(hide yes)
				)
			)
			(property "Description" "Push button switch, generic, two pins"
				(at 0 0 0)
				(effects
					(font
						(size 1.27 1.27)
					)
					(hide yes)
				)
			)
			(property "ki_keywords" "switch normally-open pushbutton push-button"
				(at 0 0 0)
				(effects
					(font
						(size 1.27 1.27)
					)
					(hide yes)
				)
			)
			(symbol "SW_Push_0_1"
				(circle
					(center -2.032 0)
					(radius 0.508)
					(stroke
						(width 0)
						(type default)
					)
					(fill
						(type none)
					)
				)
				(polyline
					(pts
						(xy 0 1.27) (xy 0 3.048)
					)
					(stroke
						(width 0)
						(type default)
					)
					(fill
						(type none)
					)
				)
				(polyline
					(pts
						(xy 2.54 1.27) (xy -2.54 1.27)
					)
					(stroke
						(width 0)
						(type default)
					)
					(fill
						(type none)
					)
				)
				(circle
					(center 2.032 0)
					(radius 0.508)
					(stroke
						(width 0)
						(type default)
					)
					(fill
						(type none)
					)
				)
				(pin passive line
					(at -5.08 0 0)
					(length 2.54)
					(name "1"
						(effects
							(font
								(size 1.27 1.27)
							)
						)
					)
					(number "1"
						(effects
							(font
								(size 1.27 1.27)
							)
						)
					)
				)
				(pin passive line
					(at 5.08 0 180)
					(length 2.54)
					(name "2"
						(effects
							(font
								(size 1.27 1.27)
							)
						)
					)
					(number "2"
						(effects
							(font
								(size 1.27 1.27)
							)
						)
					)
				)
			)
		)
		(symbol "Timer_RTC:DS1307+"
			(exclude_from_sim no)
			(in_bom yes)
			(on_board yes)
			(property "Reference" "U"
				(at -8.89 8.89 0)
				(effects
					(font
						(size 1.27 1.27)
					)
				)
			)
			(property "Value" "DS1307+"
				(at 1.27 8.89 0)
				(effects
					(font
						(size 1.27 1.27)
					)
					(justify left)
				)
			)
			(property "Footprint" "Package_DIP:DIP-8_W7.62mm"
				(at 0 -12.7 0)
				(effects
					(font
						(size 1.27 1.27)
					)
					(hide yes)
				)
			)
			(property "Datasheet" "https://datasheets.maximintegrated.com/en/ds/DS1307.pdf"
				(at 0 -5.08 0)
				(effects
					(font
						(size 1.27 1.27)
					)
					(hide yes)
				)
			)
			(property "Description" "64 x 8, Serial, I2C Real-time clock, 4.5V to 5.5V VCC, 0°C to +70°C, DIP-8"
				(at 0 0 0)
				(effects
					(font
						(size 1.27 1.27)
					)
					(hide yes)
				)
			)
			(property "ki_keywords" "RTC, Trickle-Charge Timekeeping Chip"
				(at 0 0 0)
				(effects
					(font
						(size 1.27 1.27)
					)
					(hide yes)
				)
			)
			(property "ki_fp_filters" "DIP*W7.62mm*"
				(at 0 0 0)
				(effects
					(font
						(size 1.27 1.27)
					)
					(hide yes)
				)
			)
			(symbol "DS1307+_0_1"
				(rectangle
					(start -10.16 7.62)
					(end 10.16 -7.62)
					(stroke
						(width 0.254)
						(type default)
					)
					(fill
						(type background)
					)
				)
			)
			(symbol "DS1307+_1_1"
				(pin input line
					(at -12.7 -2.54 0)
					(length 2.54)
					(name "X1"
						(effects
							(font
								(size 1.27 1.27)
							)
						)
					)
					(number "1"
						(effects
							(font
								(size 1.27 1.27)
							)
						)
					)
				)
				(pin input line
					(at -12.7 -5.08 0)
					(length 2.54)
					(name "X2"
						(effects
							(font
								(size 1.27 1.27)
							)
						)
					)
					(number "2"
						(effects
							(font
								(size 1.27 1.27)
							)
						)
					)
				)
				(pin power_in line
					(at 0 10.16 270)
					(length 2.54)
					(name "VBAT"
						(effects
							(font
								(size 1.27 1.27)
							)
						)
					)
					(number "3"
						(effects
							(font
								(size 1.27 1.27)
							)
						)
					)
				)
				(pin power_in line
					(at 0 -10.16 90)
					(length 2.54)
					(name "GND"
						(effects
							(font
								(size 1.27 1.27)
							)
						)
					)
					(number "4"
						(effects
							(font
								(size 1.27 1.27)
							)
						)
					)
				)
				(pin bidirectional line
					(at -12.7 2.54 0)
					(length 2.54)
					(name "SDA"
						(effects
							(font
								(size 1.27 1.27)
							)
						)
					)
					(number "5"
						(effects
							(font
								(size 1.27 1.27)
							)
						)
					)
				)
				(pin input line
					(at -12.7 5.08 0)
					(length 2.54)
					(name "SCL"
						(effects
							(font
								(size 1.27 1.27)
							)
						)
					)
					(number "6"
						(effects
							(font
								(size 1.27 1.27)
							)
						)
					)
				)
				(pin open_collector line
					(at 12.7 0 180)
					(length 2.54)
					(name "SQW/OUT"
						(effects
							(font
								(size 1.27 1.27)
							)
						)
					)
					(number "7"
						(effects
							(font
								(size 1.27 1.27)
							)
						)
					)
				)
				(pin power_in line
					(at -2.54 10.16 270)
					(length 2.54)
					(name "VCC"
						(effects
							(font
								(size 1.27 1.27)
							)
						)
					)
					(number "8"
						(effects
							(font
								(size 1.27 1.27)
							)
						)
					)
				)
			)
		)
		(symbol "power:GND"
			(power)
			(pin_numbers hide)
			(pin_names
				(offset 0) hide)
			(exclude_from_sim no)
			(in_bom yes)
			(on_board yes)
			(property "Reference" "#PWR"
				(at 0 -6.35 0)
				(effects
					(font
						(size 1.27 1.27)
					)
					(hide yes)
				)
			)
			(property "Value" "GND"
				(at 0 -3.81 0)
				(effects
					(font
						(size 1.27 1.27)
					)
				)
			)
			(property "Footprint" ""
				(at 0 0 0)
				(effects
					(font
						(size 1.27 1.27)
					)
					(hide yes)
				)
			)
			(property "Datasheet" ""
				(at 0 0 0)
				(effects
					(font
						(size 1.27 1.27)
					)
					(hide yes)
				)
			)
			(property "Description" "Power symbol creates a global label with name \"GND\" , ground"
				(at 0 0 0)
				(effects
					(font
						(size 1.27 1.27)
					)
					(hide yes)
				)
			)
			(property "ki_keywords" "global power"
				(at 0 0 0)
				(effects
					(font
						(size 1.27 1.27)
					)
					(hide yes)
				)
			)
			(symbol "GND_0_1"
				(polyline
					(pts
						(xy 0 0) (xy 0 -1.27) (xy 1.27 -1.27) (xy 0 -2.54) (xy -1.27 -1.27) (xy 0 -1.27)
					)
					(stroke
						(width 0)
						(type default)
					)
					(fill
						(type none)
					)
				)
			)
			(symbol "GND_1_1"
				(pin power_in line
					(at 0 0 270)
					(length 0)
					(name "~"
						(effects
							(font
								(size 1.27 1.27)
							)
						)
					)
					(number "1"
						(effects
							(font
								(size 1.27 1.27)
							)
						)
					)
				)
			)
		)
		(symbol "power:VCC"
			(power)
			(pin_numbers hide)
			(pin_names
				(offset 0) hide)
			(exclude_from_sim no)
			(in_bom yes)
			(on_board yes)
			(property "Reference" "#PWR"
				(at 0 -3.81 0)
				(effects
					(font
						(size 1.27 1.27)
					)
					(hide yes)
				)
			)
			(property "Value" "VCC"
				(at 0 3.556 0)
				(effects
					(font
						(size 1.27 1.27)
					)
				)
			)
			(property "Footprint" ""
				(at 0 0 0)
				(effects
					(font
						(size 1.27 1.27)
					)
					(hide yes)
				)
			)
			(property "Datasheet" ""
				(at 0 0 0)
				(effects
					(font
						(size 1.27 1.27)
					)
					(hide yes)
				)
			)
			(property "Description" "Power symbol creates a global label with name \"VCC\""
				(at 0 0 0)
				(effects
					(font
						(size 1.27 1.27)
					)
					(hide yes)
				)
			)
			(property "ki_keywords" "global power"
				(at 0 0 0)
				(effects
					(font
						(size 1.27 1.27)
					)
					(hide yes)
				)
			)
			(symbol "VCC_0_1"
				(polyline
					(pts
						(xy -0.762 1.27) (xy 0 2.54)
					)
					(stroke
						(width 0)
						(type default)
					)
					(fill
						(type none)
					)
				)
				(polyline
					(pts
						(xy 0 0) (xy 0 2.54)
					)
					(stroke
						(width 0)
						(type default)
					)
					(fill
						(type none)
					)
				)
				(polyline
					(pts
						(xy 0 2.54) (xy 0.762 1.27)
					)
					(stroke
						(width 0)
						(type default)
					)
					(fill
						(type none)
					)
				)
			)
			(symbol "VCC_1_1"
				(pin power_in line
					(at 0 0 90)
					(length 0)
					(name "~"
						(effects
							(font
								(size 1.27 1.27)
							)
						)
					)
					(number "1"
						(effects
							(font
								(size 1.27 1.27)
							)
						)
					)
				)
			)
		)
	)
	(junction
		(at 142.24 66.04)
		(diameter 0)
		(color 0 0 0 0)
		(uuid "086e2f68-4bf7-4a35-a972-001dda07060f")
	)
	(wire
		(pts
			(xy 139.7 116.84) (xy 139.7 120.65)
		)
		(stroke
			(width 0)
			(type default)
		)
		(uuid "078b488b-9164-4e98-a25b-c68dfd2529dd")
	)
	(wire
		(pts
			(xy 210.82 49.53) (xy 207.01 49.53)
		)
		(stroke
			(width 0)
			(type default)
		)
		(uuid "1839cfdf-58d0-4073-a90c-3c128558ccf2")
	)
	(wire
		(pts
			(xy 142.24 55.88) (xy 142.24 66.04)
		)
		(stroke
			(width 0)
			(type default)
		)
		(uuid "2b29cf24-4ae4-43f3-8513-d5d892156596")
	)
	(wire
		(pts
			(xy 109.22 49.53) (xy 109.22 50.8)
		)
		(stroke
			(width 0)
			(type default)
		)
		(uuid "635a44c0-7248-426c-b610-8834417827bf")
	)
	(wire
		(pts
			(xy 196.85 109.22) (xy 196.85 115.57)
		)
		(stroke
			(width 0)
			(type default)
		)
		(uuid "69ad3214-2bec-49ad-936c-308e2022175a")
	)
	(wire
		(pts
			(xy 142.24 66.04) (xy 144.78 66.04)
		)
		(stroke
			(width 0)
			(type default)
		)
		(uuid "7bff65d2-a09e-493c-b481-73199e59c97e")
	)
	(wire
		(pts
			(xy 109.22 44.45) (xy 109.22 40.64)
		)
		(stroke
			(width 0)
			(type default)
		)
		(uuid "86651145-cdbb-4527-b95d-b60c5909e4a2")
	)
	(wire
		(pts
			(xy 208.28 46.99) (xy 210.82 46.99)
		)
		(stroke
			(width 0)
			(type default)
		)
		(uuid "89567eac-9ea6-4e2e-9a12-537f5492b0bf")
	)
	(wire
		(pts
			(xy 194.31 81.28) (xy 194.31 88.9)
		)
		(stroke
			(width 0)
			(type default)
		)
		(uuid "8f9d36f8-b72c-43d0-87be-d40a3741884b")
	)
	(wire
		(pts
			(xy 104.14 49.53) (xy 109.22 49.53)
		)
		(stroke
			(width 0)
			(type default)
		)
		(uuid "dd35df11-1379-4f23-9a10-a92aa777ada9")
	)
	(wire
		(pts
			(xy 104.14 44.45) (xy 109.22 44.45)
		)
		(stroke
			(width 0)
			(type default)
		)
		(uuid "f9a360f4-0d29-4045-bd54-2fdfc7146b6a")
	)
	(wire
		(pts
			(xy 208.28 40.64) (xy 208.28 46.99)
		)
		(stroke
			(width 0)
			(type default)
		)
		(uuid "fa2057ac-1e46-46ae-b622-8b4617daecb1")
	)
	(wire
		(pts
			(xy 207.01 49.53) (xy 207.01 55.88)
		)
		(stroke
			(width 0)
			(type default)
		)
		(uuid "fd51c104-0f8f-440d-bc07-d24df323757a")
	)
	(rectangle
		(start 90.17 27.94)
		(end 227.33 124.46)
		(stroke
			(width 0)
			(type default)
		)
		(fill
			(type none)
		)
		(uuid 4671829f-e566-4073-ba25-dbc73143c723)
	)
	(symbol
		(lib_id "Switch:SW_Push")
		(at 53.34 102.87 90)
		(unit 1)
		(exclude_from_sim no)
		(in_bom yes)
		(on_board yes)
		(dnp no)
		(fields_autoplaced yes)
		(uuid "04a4d904-463f-45cc-a7a6-2dd7fb669c6b")
		(property "Reference" "SW2"
			(at 54.61 101.5999 90)
			(effects
				(font
					(size 1.27 1.27)
				)
				(justify right)
			)
		)
		(property "Value" "SW_Push"
			(at 54.61 104.1399 90)
			(effects
				(font
					(size 1.27 1.27)
				)
				(justify right)
			)
		)
		(property "Footprint" ""
			(at 48.26 102.87 0)
			(effects
				(font
					(size 1.27 1.27)
				)
				(hide yes)
			)
		)
		(property "Datasheet" "~"
			(at 48.26 102.87 0)
			(effects
				(font
					(size 1.27 1.27)
				)
				(hide yes)
			)
		)
		(property "Description" "Push button switch, generic, two pins"
			(at 53.34 102.87 0)
			(effects
				(font
					(size 1.27 1.27)
				)
				(hide yes)
			)
		)
		(pin "2"
			(uuid "9d501ab8-fdb0-44cd-8725-106a73e03e4b")
		)
		(pin "1"
			(uuid "8af72155-0b39-4673-a48f-cf6f5fa45f27")
		)
		(instances
			(project ""
				(path "/0bcf43ae-2607-45f1-b6e9-8d1bf7ec56e1"
					(reference "SW2")
					(unit 1)
				)
			)
		)
	)
	(symbol
		(lib_id "LED:WS2812B")
		(at 116.84 166.37 0)
		(unit 1)
		(exclude_from_sim no)
		(in_bom yes)
		(on_board yes)
		(dnp no)
		(fields_autoplaced yes)
		(uuid "092a0a80-43cd-4ee1-8f29-30b8e4429010")
		(property "Reference" "D5"
			(at 128.27 160.0514 0)
			(effects
				(font
					(size 1.27 1.27)
				)
			)
		)
		(property "Value" "WS2812B"
			(at 128.27 162.5914 0)
			(effects
				(font
					(size 1.27 1.27)
				)
			)
		)
		(property "Footprint" "LED_SMD:LED_WS2812B_PLCC4_5.0x5.0mm_P3.2mm"
			(at 118.11 173.99 0)
			(effects
				(font
					(size 1.27 1.27)
				)
				(justify left top)
				(hide yes)
			)
		)
		(property "Datasheet" "https://cdn-shop.adafruit.com/datasheets/WS2812B.pdf"
			(at 119.38 175.895 0)
			(effects
				(font
					(size 1.27 1.27)
				)
				(justify left top)
				(hide yes)
			)
		)
		(property "Description" "RGB LED with integrated controller"
			(at 116.84 166.37 0)
			(effects
				(font
					(size 1.27 1.27)
				)
				(hide yes)
			)
		)
		(pin "1"
			(uuid "d75f9c16-2788-4716-97ba-0b92bc7862d3")
		)
		(pin "2"
			(uuid "7a992725-d793-4ab6-9485-3b0140a943ec")
		)
		(pin "3"
			(uuid "917a4c54-6de0-4661-aff6-4b7134d415b7")
		)
		(pin "4"
			(uuid "ff40a433-451a-4693-b820-b7e95f3eddcc")
		)
		(instances
			(project ""
				(path "/0bcf43ae-2607-45f1-b6e9-8d1bf7ec56e1"
					(reference "D5")
					(unit 1)
				)
			)
		)
	)
	(symbol
		(lib_id "power:VCC")
		(at 208.28 40.64 0)
		(unit 1)
		(exclude_from_sim no)
		(in_bom yes)
		(on_board yes)
		(dnp no)
		(fields_autoplaced yes)
		(uuid "12a7dab2-ae7c-424a-a1c2-90183be3fba3")
		(property "Reference" "#PWR06"
			(at 208.28 44.45 0)
			(effects
				(font
					(size 1.27 1.27)
				)
				(hide yes)
			)
		)
		(property "Value" "VCC"
			(at 208.28 35.56 0)
			(effects
				(font
					(size 1.27 1.27)
				)
			)
		)
		(property "Footprint" ""
			(at 208.28 40.64 0)
			(effects
				(font
					(size 1.27 1.27)
				)
				(hide yes)
			)
		)
		(property "Datasheet" ""
			(at 208.28 40.64 0)
			(effects
				(font
					(size 1.27 1.27)
				)
				(hide yes)
			)
		)
		(property "Description" "Power symbol creates a global label with name \"VCC\""
			(at 208.28 40.64 0)
			(effects
				(font
					(size 1.27 1.27)
				)
				(hide yes)
			)
		)
		(pin "1"
			(uuid "bd447d49-fbc4-4388-84a7-b0ad97e04cf1")
		)
		(instances
			(project ""
				(path "/0bcf43ae-2607-45f1-b6e9-8d1bf7ec56e1"
					(reference "#PWR06")
					(unit 1)
				)
			)
		)
	)
	(symbol
		(lib_id "Connector:Conn_01x07_Pin")
		(at 97.79 110.49 0)
		(unit 1)
		(exclude_from_sim no)
		(in_bom yes)
		(on_board yes)
		(dnp no)
		(fields_autoplaced yes)
		(uuid "141b6542-5dde-42b2-bcf2-2ca4c0c66fb4")
		(property "Reference" "J3"
			(at 98.425 97.79 0)
			(effects
				(font
					(size 1.27 1.27)
				)
			)
		)
		(property "Value" "Button Connector"
			(at 98.425 100.33 0)
			(effects
				(font
					(size 1.27 1.27)
				)
			)
		)
		(property "Footprint" ""
			(at 97.79 110.49 0)
			(effects
				(font
					(size 1.27 1.27)
				)
				(hide yes)
			)
		)
		(property "Datasheet" "~"
			(at 97.79 110.49 0)
			(effects
				(font
					(size 1.27 1.27)
				)
				(hide yes)
			)
		)
		(property "Description" "Generic connector, single row, 01x07, script generated"
			(at 97.79 110.49 0)
			(effects
				(font
					(size 1.27 1.27)
				)
				(hide yes)
			)
		)
		(pin "2"
			(uuid "80895710-9a90-4f27-9586-b87e826eda8e")
		)
		(pin "5"
			(uuid "47634a7b-6f84-4b27-9672-7a6c9a052975")
		)
		(pin "3"
			(uuid "81956307-141b-483c-8796-20dd68a1b4a6")
		)
		(pin "7"
			(uuid "b78c12de-09bc-466c-b0af-9dbe2cfa55c0")
		)
		(pin "6"
			(uuid "e3938ac0-b838-40fc-ad44-12cdbab93ed7")
		)
		(pin "4"
			(uuid "73c6f7b6-d2d9-4e11-b937-89d9c0c2a31f")
		)
		(pin "1"
			(uuid "378fa39d-51e4-4bcb-9dfc-64223fc4f34b")
		)
		(instances
			(project ""
				(path "/0bcf43ae-2607-45f1-b6e9-8d1bf7ec56e1"
					(reference "J3")
					(unit 1)
				)
			)
		)
	)
	(symbol
		(lib_id "power:VCC")
		(at 109.22 40.64 0)
		(unit 1)
		(exclude_from_sim no)
		(in_bom yes)
		(on_board yes)
		(dnp no)
		(fields_autoplaced yes)
		(uuid "14412598-efe4-406d-9e7f-f190f5b07d01")
		(property "Reference" "#PWR08"
			(at 109.22 44.45 0)
			(effects
				(font
					(size 1.27 1.27)
				)
				(hide yes)
			)
		)
		(property "Value" "VCC"
			(at 109.22 35.56 0)
			(effects
				(font
					(size 1.27 1.27)
				)
			)
		)
		(property "Footprint" ""
			(at 109.22 40.64 0)
			(effects
				(font
					(size 1.27 1.27)
				)
				(hide yes)
			)
		)
		(property "Datasheet" ""
			(at 109.22 40.64 0)
			(effects
				(font
					(size 1.27 1.27)
				)
				(hide yes)
			)
		)
		(property "Description" "Power symbol creates a global label with name \"VCC\""
			(at 109.22 40.64 0)
			(effects
				(font
					(size 1.27 1.27)
				)
				(hide yes)
			)
		)
		(pin "1"
			(uuid "ecb91f00-4646-4da8-879c-d0c8827dc24f")
		)
		(instances
			(project ""
				(path "/0bcf43ae-2607-45f1-b6e9-8d1bf7ec56e1"
					(reference "#PWR08")
					(unit 1)
				)
			)
		)
	)
	(symbol
		(lib_id "power:VCC")
		(at 194.31 81.28 0)
		(unit 1)
		(exclude_from_sim no)
		(in_bom yes)
		(on_board yes)
		(dnp no)
		(fields_autoplaced yes)
		(uuid "227d64e6-a497-43ad-93e4-a301ef03b0dd")
		(property "Reference" "#PWR04"
			(at 194.31 85.09 0)
			(effects
				(font
					(size 1.27 1.27)
				)
				(hide yes)
			)
		)
		(property "Value" "VCC"
			(at 194.31 76.2 0)
			(effects
				(font
					(size 1.27 1.27)
				)
			)
		)
		(property "Footprint" ""
			(at 194.31 81.28 0)
			(effects
				(font
					(size 1.27 1.27)
				)
				(hide yes)
			)
		)
		(property "Datasheet" ""
			(at 194.31 81.28 0)
			(effects
				(font
					(size 1.27 1.27)
				)
				(hide yes)
			)
		)
		(property "Description" "Power symbol creates a global label with name \"VCC\""
			(at 194.31 81.28 0)
			(effects
				(font
					(size 1.27 1.27)
				)
				(hide yes)
			)
		)
		(pin "1"
			(uuid "1993f343-4fd6-408f-a23c-e621d9ba77a2")
		)
		(instances
			(project ""
				(path "/0bcf43ae-2607-45f1-b6e9-8d1bf7ec56e1"
					(reference "#PWR04")
					(unit 1)
				)
			)
		)
	)
	(symbol
		(lib_id "Device:RotaryEncoder_Switch")
		(at 55.88 124.46 0)
		(unit 1)
		(exclude_from_sim no)
		(in_bom yes)
		(on_board yes)
		(dnp no)
		(fields_autoplaced yes)
		(uuid "296d68c3-d815-4075-b04a-a0a083518a27")
		(property "Reference" "SW1"
			(at 55.88 114.3 0)
			(effects
				(font
					(size 1.27 1.27)
				)
			)
		)
		(property "Value" "RotaryEncoder_Switch"
			(at 55.88 116.84 0)
			(effects
				(font
					(size 1.27 1.27)
				)
			)
		)
		(property "Footprint" ""
			(at 52.07 120.396 0)
			(effects
				(font
					(size 1.27 1.27)
				)
				(hide yes)
			)
		)
		(property "Datasheet" "~"
			(at 55.88 117.856 0)
			(effects
				(font
					(size 1.27 1.27)
				)
				(hide yes)
			)
		)
		(property "Description" "Rotary encoder, dual channel, incremental quadrate outputs, with switch"
			(at 55.88 124.46 0)
			(effects
				(font
					(size 1.27 1.27)
				)
				(hide yes)
			)
		)
		(pin "A"
			(uuid "073ca248-d763-4014-b714-08372edb43f7")
		)
		(pin "B"
			(uuid "8846fec3-595e-4c84-a422-c7136f17cdc3")
		)
		(pin "C"
			(uuid "520079e1-0b5e-4fdc-9ef4-d79fc81b9ad2")
		)
		(pin "S1"
			(uuid "17984acc-df80-4ae1-bc9f-7b62cece9d81")
		)
		(pin "S2"
			(uuid "6d170eda-9a67-453b-9d46-d9bfb135d034")
		)
		(instances
			(project ""
				(path "/0bcf43ae-2607-45f1-b6e9-8d1bf7ec56e1"
					(reference "SW1")
					(unit 1)
				)
			)
		)
	)
	(symbol
		(lib_id "MCU_Module:Arduino_Nano_v2.x")
		(at 139.7 91.44 0)
		(unit 1)
		(exclude_from_sim no)
		(in_bom yes)
		(on_board yes)
		(dnp no)
		(fields_autoplaced yes)
		(uuid "2ea65635-73b5-444c-ab6d-583041354608")
		(property "Reference" "A1"
			(at 144.4341 116.84 0)
			(effects
				(font
					(size 1.27 1.27)
				)
				(justify left)
			)
		)
		(property "Value" "Arduino_Nano_v2.x"
			(at 144.4341 119.38 0)
			(effects
				(font
					(size 1.27 1.27)
				)
				(justify left)
			)
		)
		(property "Footprint" "Module:Arduino_Nano"
			(at 139.7 91.44 0)
			(effects
				(font
					(size 1.27 1.27)
					(italic yes)
				)
				(hide yes)
			)
		)
		(property "Datasheet" "https://www.arduino.cc/en/uploads/Main/ArduinoNanoManual23.pdf"
			(at 139.7 91.44 0)
			(effects
				(font
					(size 1.27 1.27)
				)
				(hide yes)
			)
		)
		(property "Description" "Arduino Nano v2.x"
			(at 139.7 91.44 0)
			(effects
				(font
					(size 1.27 1.27)
				)
				(hide yes)
			)
		)
		(pin "19"
			(uuid "7a9857aa-2a5d-41b7-b625-c601bcfcf47d")
		)
		(pin "29"
			(uuid "5c8c027a-39f5-4235-90b9-8edce36670d4")
		)
		(pin "22"
			(uuid "8e66853b-a004-4454-a9b8-5e372e70954d")
		)
		(pin "20"
			(uuid "abb0a8b3-d418-4f5f-b22e-04860ac40ca8")
		)
		(pin "13"
			(uuid "a1ba4a3d-037f-425b-9597-8e94ae4a9d15")
		)
		(pin "26"
			(uuid "4e44a1d7-d619-4fbb-bf6e-0bea29ff64f6")
		)
		(pin "14"
			(uuid "38556f92-e457-41a6-9af5-e7794a538058")
		)
		(pin "15"
			(uuid "6ef6af02-e358-4b18-be73-a62c1f658142")
		)
		(pin "6"
			(uuid "26340c42-b638-4ec3-8885-576f43795840")
		)
		(pin "28"
			(uuid "f4e4c4a1-39c5-43ea-b04a-13d751bffeb1")
		)
		(pin "3"
			(uuid "16089ed2-d223-444e-8258-dd69bd743d04")
		)
		(pin "23"
			(uuid "08c6f163-9e30-40ad-8184-1181dc644208")
		)
		(pin "18"
			(uuid "aa3f011e-7ba3-411d-826c-c721d44b340d")
		)
		(pin "17"
			(uuid "e9f5660b-043f-483b-a9f1-2ec20c6401fb")
		)
		(pin "10"
			(uuid "6b16259f-9fda-4081-92f6-01bd14e8d1ec")
		)
		(pin "11"
			(uuid "27f0f49b-1f9a-4104-aca4-9a10d3949d19")
		)
		(pin "1"
			(uuid "32407364-1604-4ef8-8c80-cebc17361746")
		)
		(pin "2"
			(uuid "a210d19b-b197-4700-bdd8-b036e615585f")
		)
		(pin "8"
			(uuid "f1ea04ed-294c-4f52-b530-9e24e8aa5fef")
		)
		(pin "7"
			(uuid "b69d64b1-8632-40f1-8368-d7a6665c3eed")
		)
		(pin "27"
			(uuid "dd25a6f6-7453-425f-9dcf-9e1681a544d2")
		)
		(pin "21"
			(uuid "d37ab0f9-bfb5-42b7-98a7-eaff0344b6a2")
		)
		(pin "16"
			(uuid "1368d3ae-cbc7-43fc-89f2-76b663ff9fd6")
		)
		(pin "25"
			(uuid "8c0264ca-6788-4810-b495-7f3973ecb9c2")
		)
		(pin "4"
			(uuid "5347b670-e745-457c-9150-2f6df3bfaa66")
		)
		(pin "5"
			(uuid "adccb844-bc04-40ac-94cc-caca751a05cd")
		)
		(pin "9"
			(uuid "0e0ef0de-75db-4704-bc8a-b8342c0fd422")
		)
		(pin "12"
			(uuid "a074e0c6-a8bc-495d-aaa6-01f662eab32d")
		)
		(pin "30"
			(uuid "cc092c91-cd5b-4cce-8696-01ac82f5ab0b")
		)
		(pin "24"
			(uuid "134b697a-01a3-4210-9668-b25a7f3ccc70")
		)
		(instances
			(project ""
				(path "/0bcf43ae-2607-45f1-b6e9-8d1bf7ec56e1"
					(reference "A1")
					(unit 1)
				)
			)
		)
	)
	(symbol
		(lib_id "Connector:Conn_01x03_Pin")
		(at 99.06 46.99 0)
		(unit 1)
		(exclude_from_sim no)
		(in_bom yes)
		(on_board yes)
		(dnp no)
		(fields_autoplaced yes)
		(uuid "379dd4ca-982d-4a20-98af-5905116b20a2")
		(property "Reference" "J1"
			(at 99.695 39.37 0)
			(effects
				(font
					(size 1.27 1.27)
				)
			)
		)
		(property "Value" "LCD I2C Connector"
			(at 99.695 41.91 0)
			(effects
				(font
					(size 1.27 1.27)
				)
			)
		)
		(property "Footprint" ""
			(at 99.06 46.99 0)
			(effects
				(font
					(size 1.27 1.27)
				)
				(hide yes)
			)
		)
		(property "Datasheet" "~"
			(at 99.06 46.99 0)
			(effects
				(font
					(size 1.27 1.27)
				)
				(hide yes)
			)
		)
		(property "Description" "Generic connector, single row, 01x03, script generated"
			(at 99.06 46.99 0)
			(effects
				(font
					(size 1.27 1.27)
				)
				(hide yes)
			)
		)
		(pin "2"
			(uuid "7e02da0a-9202-4942-9ba4-e81ff6abd4f1")
		)
		(pin "3"
			(uuid "a91d1f28-a4af-4004-bdfd-b069c4dbdb7a")
		)
		(pin "1"
			(uuid "387b45b9-efd2-49c1-9eb8-d51933f75cb5")
		)
		(instances
			(project ""
				(path "/0bcf43ae-2607-45f1-b6e9-8d1bf7ec56e1"
					(reference "J1")
					(unit 1)
				)
			)
		)
	)
	(symbol
		(lib_id "power:GND")
		(at 207.01 55.88 0)
		(unit 1)
		(exclude_from_sim no)
		(in_bom yes)
		(on_board yes)
		(dnp no)
		(fields_autoplaced yes)
		(uuid "3806fa50-5002-4dae-b9be-5c596efccc49")
		(property "Reference" "#PWR03"
			(at 207.01 62.23 0)
			(effects
				(font
					(size 1.27 1.27)
				)
				(hide yes)
			)
		)
		(property "Value" "GND"
			(at 207.01 60.96 0)
			(effects
				(font
					(size 1.27 1.27)
				)
			)
		)
		(property "Footprint" ""
			(at 207.01 55.88 0)
			(effects
				(font
					(size 1.27 1.27)
				)
				(hide yes)
			)
		)
		(property "Datasheet" ""
			(at 207.01 55.88 0)
			(effects
				(font
					(size 1.27 1.27)
				)
				(hide yes)
			)
		)
		(property "Description" "Power symbol creates a global label with name \"GND\" , ground"
			(at 207.01 55.88 0)
			(effects
				(font
					(size 1.27 1.27)
				)
				(hide yes)
			)
		)
		(pin "1"
			(uuid "350b7ded-905d-4dbe-9a58-3e0b6f60d30e")
		)
		(instances
			(project ""
				(path "/0bcf43ae-2607-45f1-b6e9-8d1bf7ec56e1"
					(reference "#PWR03")
					(unit 1)
				)
			)
		)
	)
	(symbol
		(lib_id "power:GND")
		(at 196.85 115.57 0)
		(unit 1)
		(exclude_from_sim no)
		(in_bom yes)
		(on_board yes)
		(dnp no)
		(fields_autoplaced yes)
		(uuid "3ed4d90a-161b-4763-8430-1c4bbdc0c024")
		(property "Reference" "#PWR02"
			(at 196.85 121.92 0)
			(effects
				(font
					(size 1.27 1.27)
				)
				(hide yes)
			)
		)
		(property "Value" "GND"
			(at 196.85 120.65 0)
			(effects
				(font
					(size 1.27 1.27)
				)
			)
		)
		(property "Footprint" ""
			(at 196.85 115.57 0)
			(effects
				(font
					(size 1.27 1.27)
				)
				(hide yes)
			)
		)
		(property "Datasheet" ""
			(at 196.85 115.57 0)
			(effects
				(font
					(size 1.27 1.27)
				)
				(hide yes)
			)
		)
		(property "Description" "Power symbol creates a global label with name \"GND\" , ground"
			(at 196.85 115.57 0)
			(effects
				(font
					(size 1.27 1.27)
				)
				(hide yes)
			)
		)
		(pin "1"
			(uuid "f1bb9f10-b249-4a2d-a05b-a8fe1244cc2b")
		)
		(instances
			(project ""
				(path "/0bcf43ae-2607-45f1-b6e9-8d1bf7ec56e1"
					(reference "#PWR02")
					(unit 1)
				)
			)
		)
	)
	(symbol
		(lib_id "Timer_RTC:DS1307+")
		(at 196.85 99.06 0)
		(unit 1)
		(exclude_from_sim no)
		(in_bom yes)
		(on_board yes)
		(dnp no)
		(fields_autoplaced yes)
		(uuid "40b5257e-383e-4c06-a1a9-b6386428a80c")
		(property "Reference" "U3"
			(at 213.36 92.7414 0)
			(effects
				(font
					(size 1.27 1.27)
				)
			)
		)
		(property "Value" "DS1307+"
			(at 213.36 95.2814 0)
			(effects
				(font
					(size 1.27 1.27)
				)
			)
		)
		(property "Footprint" "Package_DIP:DIP-8_W7.62mm"
			(at 196.85 111.76 0)
			(effects
				(font
					(size 1.27 1.27)
				)
				(hide yes)
			)
		)
		(property "Datasheet" "https://datasheets.maximintegrated.com/en/ds/DS1307.pdf"
			(at 196.85 104.14 0)
			(effects
				(font
					(size 1.27 1.27)
				)
				(hide yes)
			)
		)
		(property "Description" "64 x 8, Serial, I2C Real-time clock, 4.5V to 5.5V VCC, 0°C to +70°C, DIP-8"
			(at 196.85 99.06 0)
			(effects
				(font
					(size 1.27 1.27)
				)
				(hide yes)
			)
		)
		(pin "8"
			(uuid "75acbce5-f0c6-4a28-815b-6d20990b9bdc")
		)
		(pin "6"
			(uuid "03d8bcbf-aded-4a85-bb6b-17d59b30e488")
		)
		(pin "1"
			(uuid "3082a483-cdb9-4709-a127-83116d8d7ebb")
		)
		(pin "5"
			(uuid "7d042877-4c62-401f-881f-dae0d288405d")
		)
		(pin "3"
			(uuid "892214c7-2a26-45d0-a4b3-eb3183a5736b")
		)
		(pin "2"
			(uuid "f654b1fd-f0f8-4e9f-8dc6-6112c2304a74")
		)
		(pin "7"
			(uuid "4685eb2f-3618-4a52-9fcd-5109b8e5d478")
		)
		(pin "4"
			(uuid "d25a65a3-0dfb-4dea-9508-7f166f9e37e4")
		)
		(instances
			(project ""
				(path "/0bcf43ae-2607-45f1-b6e9-8d1bf7ec56e1"
					(reference "U3")
					(unit 1)
				)
			)
		)
	)
	(symbol
		(lib_id "power:VCC")
		(at 142.24 55.88 0)
		(unit 1)
		(exclude_from_sim no)
		(in_bom yes)
		(on_board yes)
		(dnp no)
		(fields_autoplaced yes)
		(uuid "43d883b6-c3f3-4072-a652-2e7d325bc23f")
		(property "Reference" "#PWR05"
			(at 142.24 59.69 0)
			(effects
				(font
					(size 1.27 1.27)
				)
				(hide yes)
			)
		)
		(property "Value" "VCC"
			(at 142.24 50.8 0)
			(effects
				(font
					(size 1.27 1.27)
				)
			)
		)
		(property "Footprint" ""
			(at 142.24 55.88 0)
			(effects
				(font
					(size 1.27 1.27)
				)
				(hide yes)
			)
		)
		(property "Datasheet" ""
			(at 142.24 55.88 0)
			(effects
				(font
					(size 1.27 1.27)
				)
				(hide yes)
			)
		)
		(property "Description" "Power symbol creates a global label with name \"VCC\""
			(at 142.24 55.88 0)
			(effects
				(font
					(size 1.27 1.27)
				)
				(hide yes)
			)
		)
		(pin "1"
			(uuid "29f72fb2-c1a7-46cd-80f0-5756a05c065c")
		)
		(instances
			(project ""
				(path "/0bcf43ae-2607-45f1-b6e9-8d1bf7ec56e1"
					(reference "#PWR05")
					(unit 1)
				)
			)
		)
	)
	(symbol
		(lib_id "Device:Buzzer")
		(at 54.61 81.28 180)
		(unit 1)
		(exclude_from_sim no)
		(in_bom yes)
		(on_board yes)
		(dnp no)
		(fields_autoplaced yes)
		(uuid "51867b8d-91ff-4856-badd-f5c6e9e6c9fc")
		(property "Reference" "BZ1"
			(at 53.8549 73.66 0)
			(effects
				(font
					(size 1.27 1.27)
				)
			)
		)
		(property "Value" "Buzzer"
			(at 53.8549 76.2 0)
			(effects
				(font
					(size 1.27 1.27)
				)
			)
		)
		(property "Footprint" ""
			(at 55.245 83.82 90)
			(effects
				(font
					(size 1.27 1.27)
				)
				(hide yes)
			)
		)
		(property "Datasheet" "~"
			(at 55.245 83.82 90)
			(effects
				(font
					(size 1.27 1.27)
				)
				(hide yes)
			)
		)
		(property "Description" "Buzzer, polarized"
			(at 54.61 81.28 0)
			(effects
				(font
					(size 1.27 1.27)
				)
				(hide yes)
			)
		)
		(pin "2"
			(uuid "7a6a7304-d256-4824-9ad5-452b24240715")
		)
		(pin "1"
			(uuid "cacd156c-fc7c-4c15-810f-8737e3cac3f7")
		)
		(instances
			(project ""
				(path "/0bcf43ae-2607-45f1-b6e9-8d1bf7ec56e1"
					(reference "BZ1")
					(unit 1)
				)
			)
		)
	)
	(symbol
		(lib_id "Device:LED")
		(at 44.45 165.1 0)
		(unit 1)
		(exclude_from_sim no)
		(in_bom yes)
		(on_board yes)
		(dnp no)
		(fields_autoplaced yes)
		(uuid "687f80d7-3709-4f3c-8ef9-bbfb42aa8343")
		(property "Reference" "D1"
			(at 42.8625 158.75 0)
			(effects
				(font
					(size 1.27 1.27)
				)
			)
		)
		(property "Value" "LED"
			(at 42.8625 161.29 0)
			(effects
				(font
					(size 1.27 1.27)
				)
			)
		)
		(property "Footprint" ""
			(at 44.45 165.1 0)
			(effects
				(font
					(size 1.27 1.27)
				)
				(hide yes)
			)
		)
		(property "Datasheet" "~"
			(at 44.45 165.1 0)
			(effects
				(font
					(size 1.27 1.27)
				)
				(hide yes)
			)
		)
		(property "Description" "Light emitting diode"
			(at 44.45 165.1 0)
			(effects
				(font
					(size 1.27 1.27)
				)
				(hide yes)
			)
		)
		(pin "2"
			(uuid "95ce7c1e-de69-44b1-bbca-6706029c24ff")
		)
		(pin "1"
			(uuid "d24be10e-a791-4a0f-a426-586dd185d325")
		)
		(instances
			(project ""
				(path "/0bcf43ae-2607-45f1-b6e9-8d1bf7ec56e1"
					(reference "D1")
					(unit 1)
				)
			)
		)
	)
	(symbol
		(lib_id "Sensor_Optical:A1050")
		(at 54.61 64.77 0)
		(unit 1)
		(exclude_from_sim no)
		(in_bom yes)
		(on_board yes)
		(dnp no)
		(fields_autoplaced yes)
		(uuid "90d47058-eb2f-48dd-992c-5e04735e1f53")
		(property "Reference" "R1"
			(at 57.15 63.4999 0)
			(effects
				(font
					(size 1.27 1.27)
				)
				(justify left)
			)
		)
		(property "Value" "A1050"
			(at 57.15 66.0399 0)
			(effects
				(font
					(size 1.27 1.27)
				)
				(justify left)
			)
		)
		(property "Footprint" "OptoDevice:R_LDR_D6.4mm_P3.4mm_Vertical"
			(at 59.055 64.77 90)
			(effects
				(font
					(size 1.27 1.27)
				)
				(hide yes)
			)
		)
		(property "Datasheet" "http://cdn-reichelt.de/documents/datenblatt/A500/A106012.pdf"
			(at 54.61 66.04 0)
			(effects
				(font
					(size 1.27 1.27)
				)
				(hide yes)
			)
		)
		(property "Description" "light dependent resistor"
			(at 54.61 64.77 0)
			(effects
				(font
					(size 1.27 1.27)
				)
				(hide yes)
			)
		)
		(pin "1"
			(uuid "746a5f3d-2bb3-4598-85b0-bcc7213bc1ba")
		)
		(pin "2"
			(uuid "e4864424-b165-45a3-96c0-ee21aec51543")
		)
		(instances
			(project ""
				(path "/0bcf43ae-2607-45f1-b6e9-8d1bf7ec56e1"
					(reference "R1")
					(unit 1)
				)
			)
		)
	)
	(symbol
		(lib_id "power:GND")
		(at 139.7 120.65 0)
		(unit 1)
		(exclude_from_sim no)
		(in_bom yes)
		(on_board yes)
		(dnp no)
		(fields_autoplaced yes)
		(uuid "9cb92abf-1c37-4170-92df-266d18d04d96")
		(property "Reference" "#PWR01"
			(at 139.7 127 0)
			(effects
				(font
					(size 1.27 1.27)
				)
				(hide yes)
			)
		)
		(property "Value" "GND"
			(at 139.7 125.73 0)
			(effects
				(font
					(size 1.27 1.27)
				)
			)
		)
		(property "Footprint" ""
			(at 139.7 120.65 0)
			(effects
				(font
					(size 1.27 1.27)
				)
				(hide yes)
			)
		)
		(property "Datasheet" ""
			(at 139.7 120.65 0)
			(effects
				(font
					(size 1.27 1.27)
				)
				(hide yes)
			)
		)
		(property "Description" "Power symbol creates a global label with name \"GND\" , ground"
			(at 139.7 120.65 0)
			(effects
				(font
					(size 1.27 1.27)
				)
				(hide yes)
			)
		)
		(pin "1"
			(uuid "255d8b2c-e628-45c5-8559-c376f5d93b60")
		)
		(instances
			(project ""
				(path "/0bcf43ae-2607-45f1-b6e9-8d1bf7ec56e1"
					(reference "#PWR01")
					(unit 1)
				)
			)
		)
	)
	(symbol
		(lib_id "Device:LED")
		(at 60.96 165.1 0)
		(unit 1)
		(exclude_from_sim no)
		(in_bom yes)
		(on_board yes)
		(dnp no)
		(fields_autoplaced yes)
		(uuid "9ec92859-3b0f-4522-8e28-8d69ce712331")
		(property "Reference" "D2"
			(at 59.3725 158.75 0)
			(effects
				(font
					(size 1.27 1.27)
				)
			)
		)
		(property "Value" "LED"
			(at 59.3725 161.29 0)
			(effects
				(font
					(size 1.27 1.27)
				)
			)
		)
		(property "Footprint" ""
			(at 60.96 165.1 0)
			(effects
				(font
					(size 1.27 1.27)
				)
				(hide yes)
			)
		)
		(property "Datasheet" "~"
			(at 60.96 165.1 0)
			(effects
				(font
					(size 1.27 1.27)
				)
				(hide yes)
			)
		)
		(property "Description" "Light emitting diode"
			(at 60.96 165.1 0)
			(effects
				(font
					(size 1.27 1.27)
				)
				(hide yes)
			)
		)
		(pin "1"
			(uuid "c1d16786-95e8-4e24-996a-c68d20ad1643")
		)
		(pin "2"
			(uuid "49ddf4d1-f0fc-47d1-addb-5c4d876dfadb")
		)
		(instances
			(project ""
				(path "/0bcf43ae-2607-45f1-b6e9-8d1bf7ec56e1"
					(reference "D2")
					(unit 1)
				)
			)
		)
	)
	(symbol
		(lib_id "Connector:Screw_Terminal_01x02")
		(at 215.9 46.99 0)
		(unit 1)
		(exclude_from_sim no)
		(in_bom yes)
		(on_board yes)
		(dnp no)
		(fields_autoplaced yes)
		(uuid "b9ee01ff-6da2-4e7f-92b2-1d6002039472")
		(property "Reference" "J2"
			(at 218.44 46.9899 0)
			(effects
				(font
					(size 1.27 1.27)
				)
				(justify left)
			)
		)
		(property "Value" "Power Connector"
			(at 218.44 49.5299 0)
			(effects
				(font
					(size 1.27 1.27)
				)
				(justify left)
			)
		)
		(property "Footprint" ""
			(at 215.9 46.99 0)
			(effects
				(font
					(size 1.27 1.27)
				)
				(hide yes)
			)
		)
		(property "Datasheet" "~"
			(at 215.9 46.99 0)
			(effects
				(font
					(size 1.27 1.27)
				)
				(hide yes)
			)
		)
		(property "Description" "Generic screw terminal, single row, 01x02, script generated (kicad-library-utils/schlib/autogen/connector/)"
			(at 215.9 46.99 0)
			(effects
				(font
					(size 1.27 1.27)
				)
				(hide yes)
			)
		)
		(pin "1"
			(uuid "bb74318a-62c3-46d4-88fd-a423c04a0bb3")
		)
		(pin "2"
			(uuid "135e202d-b16c-40be-8870-12d9ba30acb5")
		)
		(instances
			(project ""
				(path "/0bcf43ae-2607-45f1-b6e9-8d1bf7ec56e1"
					(reference "J2")
					(unit 1)
				)
			)
		)
	)
	(symbol
		(lib_id "Device:LED")
		(at 77.47 165.1 0)
		(unit 1)
		(exclude_from_sim no)
		(in_bom yes)
		(on_board yes)
		(dnp no)
		(fields_autoplaced yes)
		(uuid "c31fc1d8-e9b1-48bf-9fa2-a7dc1fa6038d")
		(property "Reference" "D3"
			(at 75.8825 158.75 0)
			(effects
				(font
					(size 1.27 1.27)
				)
			)
		)
		(property "Value" "LED"
			(at 75.8825 161.29 0)
			(effects
				(font
					(size 1.27 1.27)
				)
			)
		)
		(property "Footprint" ""
			(at 77.47 165.1 0)
			(effects
				(font
					(size 1.27 1.27)
				)
				(hide yes)
			)
		)
		(property "Datasheet" "~"
			(at 77.47 165.1 0)
			(effects
				(font
					(size 1.27 1.27)
				)
				(hide yes)
			)
		)
		(property "Description" "Light emitting diode"
			(at 77.47 165.1 0)
			(effects
				(font
					(size 1.27 1.27)
				)
				(hide yes)
			)
		)
		(pin "1"
			(uuid "89aa6536-8f47-447e-8bc0-81db03ee1bf6")
		)
		(pin "2"
			(uuid "d35e656a-8fa6-455a-b402-f834e5eac90c")
		)
		(instances
			(project ""
				(path "/0bcf43ae-2607-45f1-b6e9-8d1bf7ec56e1"
					(reference "D3")
					(unit 1)
				)
			)
		)
	)
	(symbol
		(lib_id "power:GND")
		(at 109.22 50.8 0)
		(unit 1)
		(exclude_from_sim no)
		(in_bom yes)
		(on_board yes)
		(dnp no)
		(fields_autoplaced yes)
		(uuid "d1723bd6-2be8-43a2-ac23-7ae6a74f4788")
		(property "Reference" "#PWR07"
			(at 109.22 57.15 0)
			(effects
				(font
					(size 1.27 1.27)
				)
				(hide yes)
			)
		)
		(property "Value" "GND"
			(at 109.22 55.88 0)
			(effects
				(font
					(size 1.27 1.27)
				)
			)
		)
		(property "Footprint" ""
			(at 109.22 50.8 0)
			(effects
				(font
					(size 1.27 1.27)
				)
				(hide yes)
			)
		)
		(property "Datasheet" ""
			(at 109.22 50.8 0)
			(effects
				(font
					(size 1.27 1.27)
				)
				(hide yes)
			)
		)
		(property "Description" "Power symbol creates a global label with name \"GND\" , ground"
			(at 109.22 50.8 0)
			(effects
				(font
					(size 1.27 1.27)
				)
				(hide yes)
			)
		)
		(pin "1"
			(uuid "90bc9c9a-61b9-40a9-8594-1614df2d4d11")
		)
		(instances
			(project ""
				(path "/0bcf43ae-2607-45f1-b6e9-8d1bf7ec56e1"
					(reference "#PWR07")
					(unit 1)
				)
			)
		)
	)
	(symbol
		(lib_id "Device:LED")
		(at 92.71 165.1 0)
		(unit 1)
		(exclude_from_sim no)
		(in_bom yes)
		(on_board yes)
		(dnp no)
		(fields_autoplaced yes)
		(uuid "f22cbf89-30ea-4a65-9c90-06a20f2a9ea5")
		(property "Reference" "D4"
			(at 91.1225 158.75 0)
			(effects
				(font
					(size 1.27 1.27)
				)
			)
		)
		(property "Value" "LED"
			(at 91.1225 161.29 0)
			(effects
				(font
					(size 1.27 1.27)
				)
			)
		)
		(property "Footprint" ""
			(at 92.71 165.1 0)
			(effects
				(font
					(size 1.27 1.27)
				)
				(hide yes)
			)
		)
		(property "Datasheet" "~"
			(at 92.71 165.1 0)
			(effects
				(font
					(size 1.27 1.27)
				)
				(hide yes)
			)
		)
		(property "Description" "Light emitting diode"
			(at 92.71 165.1 0)
			(effects
				(font
					(size 1.27 1.27)
				)
				(hide yes)
			)
		)
		(pin "2"
			(uuid "65605ea0-d3ee-4262-8b47-1bbe36cd78d9")
		)
		(pin "1"
			(uuid "2d44fbed-8a7a-44f9-9617-d92735fdfce1")
		)
		(instances
			(project ""
				(path "/0bcf43ae-2607-45f1-b6e9-8d1bf7ec56e1"
					(reference "D4")
					(unit 1)
				)
			)
		)
	)
	(symbol
		(lib_id "Regulator_Switching:XL4015")
		(at 248.92 52.07 0)
		(unit 1)
		(exclude_from_sim no)
		(in_bom yes)
		(on_board yes)
		(dnp no)
		(fields_autoplaced yes)
		(uuid "f4d7dab7-f712-47cc-87d6-05471efd2600")
		(property "Reference" "U1"
			(at 248.92 41.91 0)
			(effects
				(font
					(size 1.27 1.27)
				)
			)
		)
		(property "Value" "XL4015"
			(at 248.92 44.45 0)
			(effects
				(font
					(size 1.27 1.27)
				)
			)
		)
		(property "Footprint" "Package_TO_SOT_SMD:TO-263-5_TabPin3"
			(at 270.51 59.69 0)
			(effects
				(font
					(size 1.27 1.27)
				)
				(hide yes)
			)
		)
		(property "Datasheet" "http://www.xlsemi.net/datasheet/XL4015%20datasheet-English.pdf"
			(at 248.92 52.07 0)
			(effects
				(font
					(size 1.27 1.27)
				)
				(hide yes)
			)
		)
		(property "Description" "5A 180kHz 36V Buck DC to DC Converter"
			(at 248.92 52.07 0)
			(effects
				(font
					(size 1.27 1.27)
				)
				(hide yes)
			)
		)
		(pin "3"
			(uuid "9102be4f-3d05-4d2e-8e66-804c45cfe53a")
		)
		(pin "1"
			(uuid "6a53351e-2e06-4cef-81ca-1cf85432f9a9")
		)
		(pin "2"
			(uuid "2fba1a44-7325-49c8-b770-645187770b6e")
		)
		(pin "5"
			(uuid "1139f65f-657e-40df-938e-0a1f33b587d3")
		)
		(pin "4"
			(uuid "37539bd1-ee70-4766-a141-fe593237a3ae")
		)
		(instances
			(project ""
				(path "/0bcf43ae-2607-45f1-b6e9-8d1bf7ec56e1"
					(reference "U1")
					(unit 1)
				)
			)
		)
	)
	(sheet_instances
		(path "/"
			(page "1")
		)
	)
)
